module go-parser

go 1.19

require (
	github.com/MadAppGang/httplog v1.3.0
	github.com/PuerkitoBio/goquery v1.8.1
	github.com/go-chi/chi v1.5.4
	github.com/go-redis/redis/v8 v8.11.5
	github.com/jmoiron/sqlx v1.3.5
	github.com/joho/godotenv v1.5.1
	github.com/lib/pq v1.10.9
	github.com/tebeka/selenium v0.9.9
	go.mongodb.org/mongo-driver v1.11.6
)

require (
	github.com/TylerBrock/colorjson v0.0.0-20200706003622-8a50f05110d2 // indirect
	github.com/andybalholm/cascadia v1.3.1 // indirect
	github.com/blang/semver v3.5.1+incompatible // indirect
	github.com/cespare/xxhash/v2 v2.1.2 // indirect
	github.com/dgryski/go-rendezvous v0.0.0-20200823014737-9f7001d12a5f // indirect
	github.com/fatih/color v1.13.0 // indirect
	github.com/golang/snappy v0.0.1 // indirect
	github.com/klauspost/compress v1.13.6 // indirect
	github.com/mattn/go-colorable v0.1.13 // indirect
	github.com/mattn/go-isatty v0.0.17 // indirect
	github.com/montanaflynn/stats v0.0.0-20171201202039-1bf9dbcd8cbe // indirect
	github.com/pkg/errors v0.9.1 // indirect
	github.com/xdg-go/pbkdf2 v1.0.0 // indirect
	github.com/xdg-go/scram v1.1.1 // indirect
	github.com/xdg-go/stringprep v1.0.3 // indirect
	github.com/youmark/pkcs8 v0.0.0-20181117223130-1be2e3e5546d // indirect
	golang.org/x/crypto v0.0.0-20220622213112-05595931fe9d // indirect
	golang.org/x/net v0.7.0 // indirect
	golang.org/x/sync v0.0.0-20220722155255-886fb9371eb4 // indirect
	golang.org/x/sys v0.5.0 // indirect
	golang.org/x/text v0.7.0 // indirect
)
